<?xml version="1.0" encoding="UTF-8" standalone="no"?>
<svg style="enable-background:new" xmlns="http://www.w3.org/2000/svg" height="512" width="512" version="1.1" viewBox="0 0 512 512">
 <defs>
  <linearGradient id="b" gradientUnits="userSpaceOnUse" x2="512" y2="512">
   <stop style="stop-color:#fff" offset="0"/>
   <stop style="stop-color:#eee" offset="1"/>
  </linearGradient>
  <linearGradient id="a" y2="512" gradientUnits="userSpaceOnUse" y1="243.2" x2="512" x1="3.463">
   <stop style="stop-color:#dcdcdc;stop-opacity:.3228" offset="0"/>
   <stop style="stop-color:#333" offset="1"/>
  </linearGradient>
 </defs>
 <rect style="color:#000000;enable-background:accumulate;fill:url(#b)" height="512" width="512" y="0" x="0"/>
 <path style="solid-color:#000000;enable-background:accumulate" d="m248.8 280c16.05-9.265 36.32-3.835 45.58 12.22 9.267 16.05 3.838 36.33-12.21 45.59-16.05 9.265-36.33 3.832-45.6-12.22-9.267-16.05-3.827-36.33 12.22-45.59z"/>
 <path style="solid-color:#000000;shape-padding:0;color-rendering:auto;enable-background:accumulate" d="m414.7 289.4c16.05-9.265 36.32-3.835 45.58 12.22 9.267 16.05 3.838 36.33-12.21 45.59-16.05 9.265-36.33 3.832-45.6-12.22-9.267-16.05-3.827-36.33 12.22-45.59z"/>
 <path style="stroke:#000;stroke-width:25;fill:none" d="m244.7 305.4s14.42-53.75 103.9 1.24c90.57 55.65 100.6 22.07 100.6 22.07"/>
 <path style="opacity:.1;fill:url(#a);fill-rule:evenodd" d="m512 512v-272l-512 272z"/>
 <path style="stroke-width:10.21px;enable-background:new" d="m167.4 297.9q11.64 20.16 26.19 33.92 14.35 13.41 30.28 19.77 16.09 5.804 33.2 4.409 17.12-1.394 34.09-11.19 16.62-9.595 26.38-23.72 9.765-14.13 12.43-30.75 2.812-17.19-1.633-36.31-4.643-19.48-16.28-39.64t-25.99-33.57q-14.55-13.77-30.63-19.57-15.94-6.364-33.05-4.969-17.12 1.394-33.74 10.99-16.97 9.8-26.74 23.93-9.765 14.13-12.58 31.31-2.457 16.98 1.979 36.11 4.443 19.13 16.08 39.29zm191.3-110.4q18.18 31.48 22.51 61.04 4.688 29.36-2.19 55.03-6.728 25.11-23.61 45.69-16.88 20.59-41.28 34.68t-51.03 18.62q-26.27 4.32-51.73-2.2-25.31-7.083-48.75-25.62-23.44-18.53-41.61-50.01-18.18-31.48-22.3-60.69-4.333-29.56 2.536-55.23 7.224-25.87 24.11-46.46 16.88-20.59 40.93-34.47t50.32-18.21q26.27-4.32 51.58 2.76 25.67 6.878 49.1 25.42 23.23 18.18 41.41 49.66z"/>
</svg>
